<?xml version="1.0" encoding="utf-8"?>
<!-- Generator: Adobe Illustrator 23.0.2, SVG Export Plug-In . SVG Version: 6.00 Build 0)  -->
<svg version="1.1" id="Layer_1" xmlns="http://www.w3.org/2000/svg" xmlns:xlink="http://www.w3.org/1999/xlink" x="0px" y="0px"
	 viewBox="0 0 260 260" style="enable-background:new 0 0 260 260;" xml:space="preserve">
<style type="text/css">
	.st0{fill:url(#SVGID_1_);}
	.st1{fill:url(#SVGID_2_);}
	.st2{fill:url(#SVGID_3_);}
	.st3{opacity:0.6;fill:#380031;}
	.st4{fill:#FFFFFF;}
	.st5{fill:url(#SVGID_4_);}
	.st6{fill:url(#SVGID_5_);}
	.st7{fill:url(#SVGID_6_);}
	.st8{fill:url(#SVGID_7_);}
	.st9{fill:url(#SVGID_8_);}
	.st10{fill:#183372;}
	.st11{fill:#043A76;}
	.st12{fill:url(#SVGID_9_);}
	.st13{fill:url(#SVGID_10_);}
	.st14{fill:url(#SVGID_11_);}
	.st15{fill:url(#SVGID_12_);}
	.st16{fill:url(#SVGID_13_);}
	.st17{fill:#3DC6E3;}
	.st18{fill:#03A7D3;}
	.st19{fill:url(#SVGID_14_);}
	.st20{fill:url(#SVGID_15_);}
	.st21{fill:url(#SVGID_16_);}
	.st22{fill:url(#SVGID_17_);}
	.st23{fill:url(#SVGID_18_);}
	.st24{opacity:0.4;fill:#06033E;}
	.st25{fill:#C7E6EC;}
	.st26{opacity:0.6;fill:#C7E6EC;}
	.st27{fill:#11203C;}
</style>
<radialGradient id="SVGID_1_" cx="116.9792" cy="59.9022" r="339.8458" gradientTransform="matrix(1.0155 0 0 -1.3567 -90.1103 22.2472)" gradientUnits="userSpaceOnUse">
	<stop  offset="3.968250e-03" style="stop-color:#4C02F1"/>
	<stop  offset="8.168010e-03" style="stop-color:#4B02EF"/>
	<stop  offset="0.1263" style="stop-color:#3903C4"/>
	<stop  offset="0.2487" style="stop-color:#29039E"/>
	<stop  offset="0.3765" style="stop-color:#1D0380"/>
	<stop  offset="0.5099" style="stop-color:#130468"/>
	<stop  offset="0.6513" style="stop-color:#0C0457"/>
	<stop  offset="0.8062" style="stop-color:#07044D"/>
	<stop  offset="1" style="stop-color:#06044A"/>
</radialGradient>
<rect class="st0" width="260" height="260"/>
<linearGradient id="SVGID_2_" gradientUnits="userSpaceOnUse" x1="-80.1103" y1="172.8446" x2="-317.6945" y2="161.3753" gradientTransform="matrix(1 0 0 1 251.0977 0)">
	<stop  offset="0" style="stop-color:#B6246E"/>
	<stop  offset="0.0506" style="stop-color:#BD2B6E"/>
	<stop  offset="0.2756" style="stop-color:#D7436D"/>
	<stop  offset="0.5062" style="stop-color:#EA556C"/>
	<stop  offset="0.744" style="stop-color:#F5606B"/>
	<stop  offset="1" style="stop-color:#F9636B"/>
</linearGradient>
<path class="st1" d="M247.11,142.54l0.08,0.1l-66.06-38.18c-3.37-1.95-9.25-1.7-13.15,0.54L20.01,190.45l-4.93-1.88l1.39,6.92
	l0.01,0c0.18,1.04,0.91,2.02,2.22,2.77l68.17,39.4c3.37,1.95,9.25,1.7,13.15-0.54l148.36-85.66c1.83-1.06,2.88-2.37,3.14-3.66
	l0.01,0.01l1.42-6.74L247.11,142.54z"/>
<linearGradient id="SVGID_3_" gradientUnits="userSpaceOnUse" x1="21.4686" y1="157.268" x2="-216.2375" y2="169.0933" gradientTransform="matrix(1 0 0 1 251.0977 0)">
	<stop  offset="0" style="stop-color:#B6246E"/>
	<stop  offset="0.0251" style="stop-color:#BE2B6E"/>
	<stop  offset="0.1108" style="stop-color:#D4406D"/>
	<stop  offset="0.2119" style="stop-color:#E5506C"/>
	<stop  offset="0.337" style="stop-color:#F05B6B"/>
	<stop  offset="0.5126" style="stop-color:#F7616B"/>
	<stop  offset="1" style="stop-color:#F9636B"/>
</linearGradient>
<path class="st2" d="M87.11,231.56l-69.82-40.35c-3.39-1.96-2.97-5.38,0.95-7.64l149.41-86.26c3.92-2.26,9.85-2.51,13.24-0.55
	l69.82,40.35c3.39,1.96,2.97,5.38-0.95,7.64l-149.41,86.26C96.43,233.28,90.5,233.52,87.11,231.56z"/>
<path class="st3" d="M108.15,208.85l-51.62-29.83c-2.51-1.45-2.19-3.98,0.7-5.65l91.47-52.69c2.9-1.67,7.28-1.85,9.79-0.41
	l51.62,29.83c2.51,1.45,2.19,3.98-0.7,5.65l-91.47,52.69C115.05,210.12,110.66,210.3,108.15,208.85z"/>
<path class="st4" d="M249.76,142.98l-149.41,86.26c-3.92,2.26-9.85,2.51-13.24,0.55l-69.82-40.35c-1.18-0.68-1.89-1.54-2.16-2.47
	c-0.45,1.56,0.25,3.13,2.16,4.23l69.82,40.35c3.39,1.96,9.32,1.71,13.24-0.55l149.41-86.26c2.56-1.48,3.61-3.44,3.11-5.18
	C252.52,140.79,251.47,142,249.76,142.98z"/>
<polygon class="st3" points="168.51,170.91 124.88,145.72 155.6,127.99 199.23,153.18 "/>
<path class="st3" d="M210.89,125.16l-13.96-8.06c-0.51-0.3-0.45-0.81,0.14-1.15l0,0c0.59-0.34,1.49-0.38,2-0.08l13.96,8.06
	c0.51,0.3,0.45,0.81-0.14,1.15l0,0C212.29,125.42,211.4,125.45,210.89,125.16z"/>
<g>
	<radialGradient id="SVGID_4_" cx="315.2129" cy="123.1488" r="156.1783" gradientUnits="userSpaceOnUse">
		<stop  offset="0" style="stop-color:#01C8EF"/>
		<stop  offset="0.0894" style="stop-color:#03BEE9"/>
		<stop  offset="0.2388" style="stop-color:#08A5D7"/>
		<stop  offset="0.4288" style="stop-color:#107BBB"/>
		<stop  offset="0.4457" style="stop-color:#1177B8"/>
		<stop  offset="1" style="stop-color:#112564"/>
	</radialGradient>
	<path class="st5" d="M198.41,52.04L158.5,29.03c-0.92-0.53-1.75-0.56-2.39-0.18l0,0l-31.85,18.4l11.72,21.3v19.54
		c0,2.68,1.63,5.79,3.64,6.95l11.43,6.6l18.28,59.92l31.41-18.11c0.01-0.01,0.03-0.02,0.04-0.02l0.11-0.06l0-0.01
		c0.73-0.47,1.19-1.47,1.19-2.89V58.99C202.05,56.31,200.42,53.2,198.41,52.04z"/>
	
		<linearGradient id="SVGID_5_" gradientUnits="userSpaceOnUse" x1="109.6269" y1="64.8951" x2="206.1591" y2="83.7489" gradientTransform="matrix(0.866 0.5 0 1 12.4311 -46.9169)">
		<stop  offset="0" style="stop-color:#01C8EF"/>
		<stop  offset="0.0894" style="stop-color:#03BEE9"/>
		<stop  offset="0.2388" style="stop-color:#08A5D7"/>
		<stop  offset="0.4288" style="stop-color:#107BBB"/>
		<stop  offset="0.4457" style="stop-color:#1177B8"/>
		<stop  offset="1" style="stop-color:#172F78"/>
	</linearGradient>
	<path class="st6" d="M166.72,161.51L126.8,138.5c-2.01-1.16-3.64-4.27-3.64-6.95V50.08c0-2.68,1.63-3.91,3.64-2.75l39.91,23.01
		c2.01,1.16,3.64,4.27,3.64,6.95v81.47C170.35,161.44,168.73,162.67,166.72,161.51z"/>
	<g>
		<linearGradient id="SVGID_6_" gradientUnits="userSpaceOnUse" x1="116.6776" y1="41.5649" x2="247.9491" y2="67.2037">
			<stop  offset="0" style="stop-color:#01C8EF"/>
			<stop  offset="0.1383" style="stop-color:#02C5ED"/>
			<stop  offset="0.2455" style="stop-color:#04BBE6"/>
			<stop  offset="0.3423" style="stop-color:#07ABDB"/>
			<stop  offset="0.4324" style="stop-color:#0B94CB"/>
			<stop  offset="0.515" style="stop-color:#1177B8"/>
			<stop  offset="1" style="stop-color:#172F78"/>
		</linearGradient>
		<path class="st7" d="M126.8,47.33l39.91,23.01c0.85,0.49,1.63,1.33,2.24,2.33l31.67-18.34c-0.61-0.99-1.38-1.81-2.22-2.29
			L158.5,29.03c-0.92-0.53-1.75-0.56-2.39-0.18l0,0l-31.53,18.22C125.19,46.78,125.96,46.84,126.8,47.33z"/>
		<linearGradient id="SVGID_7_" gradientUnits="userSpaceOnUse" x1="124.2493" y1="47.2438" x2="124.2812" y2="47.25">
			<stop  offset="0" style="stop-color:#01C8EF"/>
			<stop  offset="0.1383" style="stop-color:#02C5ED"/>
			<stop  offset="0.2455" style="stop-color:#04BBE6"/>
			<stop  offset="0.3423" style="stop-color:#07ABDB"/>
			<stop  offset="0.4324" style="stop-color:#0B94CB"/>
			<stop  offset="0.515" style="stop-color:#1177B8"/>
			<stop  offset="1" style="stop-color:#172F78"/>
		</linearGradient>
		<path class="st8" d="M124.27,47.24l-0.02,0.01l0,0C124.26,47.25,124.26,47.24,124.27,47.24z"/>
	</g>
	<g>
		<path class="st4" d="M169.16,71.44c-0.62-1.01-1.59-1.73-2.44-2.22L126.8,46.21c-0.14-0.08-0.27-0.14-0.4-0.2l-1.83,1.05
			c0.62-0.29,1.39-0.22,2.23,0.26l39.91,23.01c0.85,0.49,1.63,1.33,2.24,2.33l31.67-18.34c-0.17-0.28-0.36-0.54-0.56-0.79
			L169.16,71.44z"/>
		<linearGradient id="SVGID_8_" gradientUnits="userSpaceOnUse" x1="124.2493" y1="46.1265" x2="124.2812" y2="46.1327">
			<stop  offset="0" style="stop-color:#01C8EF"/>
			<stop  offset="0.1383" style="stop-color:#02C5ED"/>
			<stop  offset="0.2455" style="stop-color:#04BBE6"/>
			<stop  offset="0.3423" style="stop-color:#07ABDB"/>
			<stop  offset="0.4324" style="stop-color:#0B94CB"/>
			<stop  offset="0.515" style="stop-color:#1177B8"/>
			<stop  offset="1" style="stop-color:#172F78"/>
		</linearGradient>
		<path class="st9" d="M124.27,46.12l-0.02,0.01l0,0C124.26,46.13,124.26,46.13,124.27,46.12z"/>
	</g>
	<path class="st10" d="M165.75,89.83c-0.21,0-0.44-0.07-0.67-0.2l-36.96-21.34c-0.81-0.47-1.44-1.67-1.44-2.73V55.45
		c0-0.61,0.22-1.09,0.6-1.31c0.34-0.19,0.75-0.17,1.16,0.07l36.96,21.34c0.81,0.47,1.44,1.67,1.44,2.73v10.11
		c0,0.61-0.22,1.09-0.6,1.32C166.09,89.78,165.92,89.83,165.75,89.83z M127.77,54.64c-0.06,0-0.12,0.01-0.17,0.04
		c-0.18,0.1-0.28,0.39-0.28,0.76v10.11c0,0.83,0.52,1.83,1.12,2.18l36.96,21.34c0.15,0.08,0.35,0.16,0.52,0.07
		c0.18-0.1,0.28-0.39,0.28-0.76V78.27c0-0.83-0.52-1.83-1.12-2.18l-36.96-21.34C128.02,54.7,127.89,54.64,127.77,54.64z"/>
	<path class="st10" d="M149.35,70.67l-5.17-2.99c-0.25-0.15-0.46-0.54-0.46-0.87l0,0c0-0.34,0.2-0.49,0.46-0.34l5.17,2.99
		c0.25,0.15,0.46,0.54,0.46,0.87l0,0C149.8,70.66,149.6,70.81,149.35,70.67z"/>
	<path class="st10" d="M165.75,110.09c-0.21,0-0.44-0.07-0.67-0.2l-36.96-21.34c-0.81-0.47-1.44-1.67-1.44-2.73V75.72
		c0-0.61,0.22-1.09,0.6-1.31c0.34-0.19,0.75-0.17,1.16,0.07l36.96,21.34c0.81,0.47,1.44,1.67,1.44,2.73v10.11
		c0,0.61-0.22,1.09-0.6,1.32C166.09,110.05,165.92,110.09,165.75,110.09z M127.77,74.91c-0.06,0-0.12,0.01-0.17,0.04
		c-0.18,0.1-0.28,0.39-0.28,0.76v10.11c0,0.83,0.52,1.83,1.12,2.18l36.96,21.34c0.15,0.08,0.35,0.16,0.52,0.07
		c0.18-0.1,0.28-0.39,0.28-0.76V98.54c0-0.83-0.52-1.83-1.12-2.18l-36.96-21.34C128.02,74.97,127.89,74.91,127.77,74.91z"/>
	<path class="st10" d="M149.35,90.94l-5.17-2.99c-0.25-0.15-0.46-0.54-0.46-0.87l0,0c0-0.34,0.2-0.49,0.46-0.34l5.17,2.99
		c0.25,0.15,0.46,0.54,0.46,0.87l0,0C149.8,90.93,149.6,91.08,149.35,90.94z"/>
	<path class="st10" d="M165.75,130.58c-0.21,0-0.44-0.07-0.67-0.2l-36.96-21.34c-0.81-0.47-1.44-1.67-1.44-2.73V96.2
		c0-0.61,0.22-1.09,0.6-1.31c0.34-0.19,0.75-0.17,1.16,0.07l36.96,21.34c0.81,0.47,1.44,1.67,1.44,2.73v10.11
		c0,0.61-0.22,1.09-0.6,1.32C166.09,130.53,165.92,130.58,165.75,130.58z M127.77,95.39c-0.06,0-0.12,0.01-0.17,0.04
		c-0.18,0.1-0.28,0.39-0.28,0.76v10.11c0,0.83,0.52,1.83,1.12,2.18l36.96,21.34c0.15,0.08,0.35,0.16,0.52,0.07
		c0.18-0.1,0.28-0.39,0.28-0.76v-10.11c0-0.83-0.52-1.83-1.12-2.18l-36.96-21.34C128.02,95.45,127.89,95.39,127.77,95.39z"/>
	<path class="st10" d="M149.35,111.42l-5.17-2.99c-0.25-0.15-0.46-0.54-0.46-0.87l0,0c0-0.34,0.2-0.49,0.46-0.34l5.17,2.99
		c0.25,0.15,0.46,0.54,0.46,0.87l0,0C149.8,111.41,149.6,111.57,149.35,111.42z"/>
	<path class="st10" d="M165.75,150.63c-0.21,0-0.44-0.07-0.67-0.2l-36.96-21.34c-0.81-0.47-1.44-1.67-1.44-2.73v-10.11
		c0-0.61,0.22-1.09,0.6-1.32c0.34-0.19,0.75-0.17,1.16,0.07l36.96,21.34c0.81,0.47,1.44,1.67,1.44,2.73v10.11
		c0,0.61-0.22,1.09-0.6,1.32C166.09,150.59,165.92,150.63,165.75,150.63z M127.77,115.45c-0.06,0-0.12,0.01-0.17,0.04
		c-0.18,0.1-0.28,0.39-0.28,0.76v10.11c0,0.83,0.52,1.83,1.12,2.18l36.96,21.34c0.15,0.08,0.35,0.16,0.52,0.07
		c0.18-0.1,0.28-0.39,0.28-0.76v-10.11c0-0.83-0.52-1.83-1.12-2.18l-36.96-21.34C128.02,115.5,127.89,115.45,127.77,115.45z"/>
	<path class="st11" d="M149.35,131.47l-5.17-2.99c-0.25-0.15-0.46-0.54-0.46-0.87l0,0c0-0.34,0.2-0.49,0.46-0.34l5.17,2.99
		c0.25,0.15,0.46,0.54,0.46,0.87l0,0C149.8,131.46,149.6,131.62,149.35,131.47z"/>
</g>
<polygon class="st3" points="112.39,203.21 68.76,178.02 99.48,160.29 143.11,185.48 "/>
<g>
	<radialGradient id="SVGID_9_" cx="260.5396" cy="156.2769" r="155.7906" gradientUnits="userSpaceOnUse">
		<stop  offset="0" style="stop-color:#01C8EF"/>
		<stop  offset="0.0894" style="stop-color:#03BEE9"/>
		<stop  offset="0.2388" style="stop-color:#08A5D7"/>
		<stop  offset="0.4288" style="stop-color:#107BBB"/>
		<stop  offset="0.4457" style="stop-color:#1177B8"/>
		<stop  offset="1" style="stop-color:#112564"/>
	</radialGradient>
	<path class="st12" d="M144.03,85.35l-39.81-22.95c-0.92-0.53-1.75-0.55-2.39-0.18l0,0L70.05,80.57l11.69,21.25v19.49
		c0,2.67,1.62,5.78,3.63,6.93l11.4,6.58L115,194.59l31.33-18.07c0.01-0.01,0.03-0.02,0.04-0.02l0.11-0.06l0-0.01
		c0.73-0.47,1.19-1.47,1.19-2.89V92.28C147.66,89.61,146.03,86.5,144.03,85.35z"/>
	
		<linearGradient id="SVGID_10_" gradientUnits="userSpaceOnUse" x1="47.0895" y1="129.4168" x2="143.3821" y2="148.2239" gradientTransform="matrix(0.866 0.5 0 1 12.4311 -46.9169)">
		<stop  offset="0" style="stop-color:#01C8EF"/>
		<stop  offset="0.0894" style="stop-color:#03BEE9"/>
		<stop  offset="0.2388" style="stop-color:#08A5D7"/>
		<stop  offset="0.4288" style="stop-color:#107BBB"/>
		<stop  offset="0.4457" style="stop-color:#1177B8"/>
		<stop  offset="1" style="stop-color:#172F78"/>
	</linearGradient>
	<path class="st13" d="M112.41,194.54L72.6,171.59c-2-1.16-3.63-4.26-3.63-6.93V83.39c0-2.67,1.62-3.9,3.63-2.74l39.81,22.95
		c2,1.16,3.63,4.26,3.63,6.93v81.26C116.04,194.47,114.42,195.7,112.41,194.54z"/>
	<g>
		<linearGradient id="SVGID_11_" gradientUnits="userSpaceOnUse" x1="62.4971" y1="74.8955" x2="193.4428" y2="100.4707">
			<stop  offset="0" style="stop-color:#01C8EF"/>
			<stop  offset="0.1383" style="stop-color:#02C5ED"/>
			<stop  offset="0.2455" style="stop-color:#04BBE6"/>
			<stop  offset="0.3423" style="stop-color:#07ABDB"/>
			<stop  offset="0.4324" style="stop-color:#0B94CB"/>
			<stop  offset="0.515" style="stop-color:#1177B8"/>
			<stop  offset="1" style="stop-color:#172F78"/>
		</linearGradient>
		<path class="st14" d="M72.6,80.65l39.81,22.95c0.85,0.49,1.62,1.32,2.24,2.33l31.59-18.3c-0.61-0.98-1.38-1.81-2.21-2.29
			l-39.81-22.95c-0.92-0.53-1.75-0.55-2.39-0.18l0,0L70.37,80.38C70.98,80.1,71.76,80.16,72.6,80.65z"/>
		<linearGradient id="SVGID_12_" gradientUnits="userSpaceOnUse" x1="70.05" y1="80.5603" x2="70.0818" y2="80.5665">
			<stop  offset="0" style="stop-color:#01C8EF"/>
			<stop  offset="0.1383" style="stop-color:#02C5ED"/>
			<stop  offset="0.2455" style="stop-color:#04BBE6"/>
			<stop  offset="0.3423" style="stop-color:#07ABDB"/>
			<stop  offset="0.4324" style="stop-color:#0B94CB"/>
			<stop  offset="0.515" style="stop-color:#1177B8"/>
			<stop  offset="1" style="stop-color:#172F78"/>
		</linearGradient>
		<path class="st15" d="M70.07,80.56l-0.02,0.01l0,0C70.06,80.56,70.07,80.56,70.07,80.56z"/>
	</g>
	<g>
		<path class="st4" d="M114.85,104.7c-0.62-1-1.59-1.73-2.44-2.21L72.6,79.53c-0.14-0.08-0.27-0.14-0.4-0.2l-1.83,1.05
			c0.62-0.28,1.39-0.22,2.23,0.26l39.81,22.95c0.85,0.49,1.62,1.32,2.24,2.33l31.59-18.3c-0.17-0.28-0.36-0.54-0.56-0.79
			L114.85,104.7z"/>
		<linearGradient id="SVGID_13_" gradientUnits="userSpaceOnUse" x1="70.05" y1="79.4457" x2="70.0818" y2="79.4519">
			<stop  offset="0" style="stop-color:#01C8EF"/>
			<stop  offset="0.1383" style="stop-color:#02C5ED"/>
			<stop  offset="0.2455" style="stop-color:#04BBE6"/>
			<stop  offset="0.3423" style="stop-color:#07ABDB"/>
			<stop  offset="0.4324" style="stop-color:#0B94CB"/>
			<stop  offset="0.515" style="stop-color:#1177B8"/>
			<stop  offset="1" style="stop-color:#172F78"/>
		</linearGradient>
		<path class="st16" d="M70.07,79.44l-0.02,0.01l0,0C70.06,79.45,70.07,79.45,70.07,79.44z"/>
	</g>
	<path class="st10" d="M111.45,123.04c-0.21,0-0.44-0.07-0.67-0.2l-36.87-21.29c-0.81-0.47-1.44-1.66-1.44-2.72V88.74
		c0-0.61,0.22-1.09,0.6-1.31c0.34-0.19,0.75-0.17,1.16,0.07l36.87,21.29c0.81,0.47,1.44,1.66,1.44,2.72v10.08
		c0,0.61-0.22,1.09-0.6,1.31C111.79,122.99,111.62,123.04,111.45,123.04z M111.1,122.29c0.14,0.08,0.35,0.16,0.52,0.07
		c0.18-0.1,0.28-0.39,0.28-0.76v-10.08c0-0.83-0.51-1.82-1.12-2.17L73.91,88.05c-0.14-0.08-0.35-0.16-0.52-0.07
		c-0.18,0.1-0.28,0.39-0.28,0.76v10.08c0,0.83,0.51,1.82,1.12,2.17L111.1,122.29z"/>
	<path class="st10" d="M95.08,103.93l-5.16-2.98c-0.25-0.15-0.45-0.53-0.45-0.87l0,0c0-0.33,0.2-0.49,0.45-0.34l5.16,2.98
		c0.25,0.15,0.45,0.53,0.45,0.87l0,0C95.54,103.92,95.34,104.07,95.08,103.93z"/>
	<path class="st10" d="M111.45,143.25c-0.21,0-0.44-0.07-0.67-0.2l-36.87-21.29c-0.81-0.47-1.44-1.66-1.44-2.72v-10.08
		c0-0.61,0.22-1.09,0.6-1.31c0.34-0.19,0.75-0.17,1.16,0.07L111.1,129c0.81,0.47,1.44,1.66,1.44,2.72v10.08
		c0,0.61-0.22,1.09-0.6,1.31C111.79,143.21,111.62,143.25,111.45,143.25z M111.1,142.5c0.14,0.08,0.35,0.16,0.52,0.07
		c0.18-0.1,0.28-0.39,0.28-0.76v-10.08c0-0.83-0.51-1.82-1.12-2.17l-36.87-21.29c-0.14-0.08-0.35-0.16-0.52-0.07
		c-0.18,0.1-0.28,0.39-0.28,0.76v10.08c0,0.83,0.51,1.82,1.12,2.17L111.1,142.5z"/>
	<path class="st10" d="M95.08,124.14l-5.16-2.98c-0.25-0.15-0.45-0.53-0.45-0.87l0,0c0-0.33,0.2-0.49,0.45-0.34l5.16,2.98
		c0.25,0.15,0.45,0.53,0.45,0.87l0,0C95.54,124.14,95.34,124.29,95.08,124.14z"/>
	<g>
		<path class="st11" d="M110.94,163l-36.87-21.29c-0.71-0.41-1.28-1.5-1.28-2.45v-10.08c0-0.94,0.57-1.38,1.28-0.97l36.87,21.29
			c0.71,0.41,1.28,1.5,1.28,2.45v10.08C112.22,162.97,111.65,163.41,110.94,163z"/>
	</g>
	<path class="st10" d="M111.45,183.69c-0.21,0-0.44-0.07-0.67-0.2l-36.87-21.29c-0.81-0.47-1.44-1.66-1.44-2.72V149.4
		c0-0.61,0.22-1.09,0.6-1.31c0.34-0.19,0.75-0.17,1.16,0.07l36.87,21.29c0.81,0.47,1.44,1.66,1.44,2.72v10.08
		c0,0.61-0.22,1.09-0.6,1.31C111.79,183.65,111.62,183.69,111.45,183.69z M111.1,182.94c0.14,0.08,0.35,0.16,0.52,0.07
		c0.18-0.1,0.28-0.39,0.28-0.76v-10.08c0-0.83-0.51-1.82-1.12-2.17l-36.87-21.29c-0.14-0.08-0.35-0.16-0.52-0.07
		c-0.18,0.1-0.28,0.39-0.28,0.76v10.08c0,0.83,0.51,1.82,1.12,2.17L111.1,182.94z"/>
	<path class="st11" d="M95.08,164.58l-5.16-2.98c-0.25-0.15-0.45-0.53-0.45-0.87l0,0c0-0.33,0.2-0.49,0.45-0.34l5.16,2.98
		c0.25,0.15,0.45,0.53,0.45,0.87l0,0C95.54,164.57,95.34,164.73,95.08,164.58z"/>
	<path class="st11" d="M81.28,152.31l-5.16-2.98c-0.25-0.15-0.45-0.53-0.45-0.87l0,0c0-0.33,0.2-0.49,0.45-0.34l5.16,2.98
		c0.25,0.15,0.45,0.53,0.45,0.87l0,0C81.73,152.31,81.53,152.46,81.28,152.31z"/>
	<polygon class="st17" points="84.18,134.05 59.39,148.36 59.39,138.59 75.72,129.17 	"/>
	<polygon class="st18" points="74.08,130.12 81.44,134.37 83.09,133.42 75.72,129.17 	"/>
	<radialGradient id="SVGID_14_" cx="113.5335" cy="166.3309" r="56.2975" gradientUnits="userSpaceOnUse">
		<stop  offset="0" style="stop-color:#01C8EF"/>
		<stop  offset="0.0894" style="stop-color:#03BEE9"/>
		<stop  offset="0.2388" style="stop-color:#08A5D7"/>
		<stop  offset="0.4288" style="stop-color:#107BBB"/>
		<stop  offset="0.4457" style="stop-color:#1177B8"/>
		<stop  offset="1" style="stop-color:#112564"/>
	</radialGradient>
	<path class="st19" d="M96.66,163.75l14.71-13.9c0,0-0.18-0.26-0.73-0.53l-25.77-14.88l-16.2,8.06l8.89,11.71L96.66,163.75z"/>
	
		<radialGradient id="SVGID_15_" cx="-96.391" cy="-419.9088" r="30.7643" gradientTransform="matrix(0.866 -0.5 0 1.1547 141.0582 561.4937)" gradientUnits="userSpaceOnUse">
		<stop  offset="0" style="stop-color:#01C8EF"/>
		<stop  offset="0.1458" style="stop-color:#04A9D5"/>
		<stop  offset="0.4361" style="stop-color:#0A71A4"/>
		<stop  offset="0.6856" style="stop-color:#0E4881"/>
		<stop  offset="0.8816" style="stop-color:#102E6C"/>
		<stop  offset="1" style="stop-color:#112564"/>
	</radialGradient>
	<polygon class="st20" points="85.05,134.55 60.08,148.97 60.08,139.2 76.59,129.67 	"/>
	<g>
		<path class="st17" d="M112.22,151.95c0-0.74-0.35-1.57-0.85-2.09l-17.16,9.95v9.77l18-10.31V151.95z"/>
		<path class="st18" d="M109.64,150.86l2.58,1.49v-0.41c0-0.74-0.35-1.57-0.85-2.09L109.64,150.86z"/>
		<radialGradient id="SVGID_16_" cx="84.4464" cy="97.3311" r="70.112" gradientUnits="userSpaceOnUse">
			<stop  offset="0" style="stop-color:#01C8EF"/>
			<stop  offset="0.1458" style="stop-color:#04A9D5"/>
			<stop  offset="0.4361" style="stop-color:#0A71A4"/>
			<stop  offset="0.6856" style="stop-color:#0E4881"/>
			<stop  offset="0.8816" style="stop-color:#102E6C"/>
			<stop  offset="1" style="stop-color:#112564"/>
		</radialGradient>
		<path class="st21" d="M112.22,151.95c0-0.44-0.13-0.91-0.33-1.33l-16.91,9.81v9.77l17.24-9.96V151.95z"/>
		<linearGradient id="SVGID_17_" gradientUnits="userSpaceOnUse" x1="54.5107" y1="146.7796" x2="114.2204" y2="164.4673">
			<stop  offset="0" style="stop-color:#01C8EF"/>
			<stop  offset="0.3058" style="stop-color:#01C6EE"/>
			<stop  offset="0.416" style="stop-color:#02BFE8"/>
			<stop  offset="0.4945" style="stop-color:#04B4DF"/>
			<stop  offset="0.558" style="stop-color:#06A3D2"/>
			<stop  offset="0.6123" style="stop-color:#0A8DC1"/>
			<stop  offset="0.6605" style="stop-color:#0D71AC"/>
			<stop  offset="0.703" style="stop-color:#125293"/>
			<stop  offset="0.7406" style="stop-color:#172F78"/>
		</linearGradient>
		<path class="st22" d="M97.13,157.45l-36.87-21.29c-0.32-0.19-0.61-0.19-0.84-0.06l0-0.01l-1.12,0.66l0.71,0.06
			c-0.01,0.1-0.02,0.2-0.02,0.31v10.08c0,0.94,0.57,2.04,1.28,2.45l36.59,21.12v0.89l1.12-0.66l-0.01,0
			c0.28-0.15,0.46-0.51,0.46-1.03V159.9C98.41,158.95,97.84,157.86,97.13,157.45z"/>
		<g>
			<linearGradient id="SVGID_18_" gradientUnits="userSpaceOnUse" x1="57.8537" y1="154.2244" x2="115.643" y2="154.2244">
				<stop  offset="0" style="stop-color:#01C8EF"/>
				<stop  offset="0.0894" style="stop-color:#03BEE9"/>
				<stop  offset="0.2388" style="stop-color:#08A5D7"/>
				<stop  offset="0.4288" style="stop-color:#107BBB"/>
				<stop  offset="0.4457" style="stop-color:#1177B8"/>
				<stop  offset="1" style="stop-color:#172F78"/>
			</linearGradient>
			<path class="st23" d="M96,171.62l-36.87-21.29c-0.71-0.41-1.28-1.5-1.28-2.45V137.8c0-0.94,0.57-1.38,1.28-0.97L96,158.12
				c0.71,0.41,1.28,1.5,1.28,2.45v10.08C97.28,171.59,96.71,172.03,96,171.62z"/>
			<path class="st10" d="M80.15,152.98L74.99,150c-0.25-0.15-0.45-0.53-0.45-0.87l0,0c0-0.34,0.2-0.49,0.45-0.34l5.16,2.98
				c0.25,0.15,0.45,0.53,0.45,0.87l0,0C80.6,152.97,80.4,153.13,80.15,152.98z"/>
		</g>
	</g>
	<path class="st24" d="M74.95,130.62v9.77l26.6,15.17l9.83-5.7c0,0-0.23-0.28-0.73-0.53l-34.05-19.66L74.95,130.62z"/>
</g>
<g>
	<polygon class="st4" points="169.31,61.96 147.66,49.46 161.68,41.36 183.34,53.86 	"/>
	<polygon class="st24" points="172.55,59.6 150.89,47.1 164.92,39 186.57,51.5 	"/>
	<polygon class="st25" points="170.11,58.23 148.46,45.73 162.48,37.63 184.14,50.13 	"/>
	<polygon class="st4" points="170.11,57.68 148.46,45.18 162.48,37.08 184.14,49.59 	"/>
	<polygon class="st25" points="170.11,57.14 148.46,44.64 162.48,36.54 184.14,49.04 	"/>
	<polygon class="st4" points="170.11,56.6 148.46,44.09 162.48,36 184.14,48.5 	"/>
	<g>
		<path class="st25" d="M166.78,50.21c-0.48,0-0.96-0.12-1.38-0.37l-5.14-2.97c-0.21-0.12-0.33-0.33-0.33-0.57s0.12-0.46,0.33-0.57
			l5.15-2.97c0.85-0.49,1.91-0.49,2.76,0l5.14,2.97c0.21,0.12,0.33,0.33,0.33,0.57s-0.12,0.46-0.33,0.57l-5.15,2.97
			C167.74,50.09,167.26,50.21,166.78,50.21z M166.78,42.62c-0.44,0-0.87,0.11-1.26,0.34l0,0l-5.15,2.97
			c-0.13,0.08-0.21,0.21-0.21,0.37s0.08,0.29,0.21,0.37l5.14,2.97c0.78,0.45,1.75,0.45,2.52,0l5.15-2.97
			c0.13-0.08,0.21-0.21,0.21-0.37s-0.08-0.29-0.21-0.37l-5.14-2.97C167.66,42.73,167.22,42.62,166.78,42.62z M165.46,42.85
			L165.46,42.85L165.46,42.85z"/>
		<g>
			<path class="st25" d="M166.75,48.04l2.67-1.54c0.15-0.09,0.4-0.09,0.56,0c0.15,0.09,0.15,0.23,0,0.32l-2.67,1.54
				c-0.15,0.09-0.4,0.09-0.56,0C166.6,48.27,166.6,48.13,166.75,48.04z"/>
			<path class="st26" d="M165.58,47.68c-0.15-0.09-0.15-0.23,0-0.32l2.28-1.32c0.15-0.09,0.4-0.09,0.56,0
				c0.15,0.09,0.15,0.23,0,0.32l-2.28,1.32C165.98,47.77,165.73,47.77,165.58,47.68z"/>
			<path class="st25" d="M164.41,46.69l0.82-0.48c0.15-0.09,0.4-0.09,0.56,0c0.15,0.09,0.15,0.23,0,0.32l-0.82,0.48
				c-0.15,0.09-0.4,0.09-0.56,0C164.26,46.92,164.26,46.78,164.41,46.69z"/>
			<path class="st25" d="M163.24,46.01l2.32-1.34c0.15-0.09,0.4-0.09,0.56,0c0.15,0.09,0.15,0.23,0,0.32l-2.32,1.34
				c-0.15,0.09-0.4,0.09-0.56,0C163.09,46.25,163.09,46.1,163.24,46.01z"/>
			<path class="st25" d="M168.32,44.76c0.15,0.09,0.15,0.23,0,0.32l-1.51,0.87c-0.15,0.09-0.4,0.09-0.56,0
				c-0.15-0.09-0.15-0.23,0-0.32l1.51-0.87C167.91,44.67,168.16,44.67,168.32,44.76z"/>
		</g>
	</g>
</g>
<path class="st27" d="M122.13,184.29c-0.22,0-0.43-0.05-0.61-0.16c-0.5-0.29-0.79-0.93-0.79-1.77v-69.9c0-1.5,0.92-3.25,2.05-3.9
	L141.05,98c0.54-0.31,1.07-0.35,1.5-0.1c0.5,0.29,0.79,0.93,0.79,1.77v69.9c0,1.5-0.92,3.25-2.05,3.9l-18.27,10.55
	C122.72,184.2,122.41,184.29,122.13,184.29z M141.94,98.21c-0.2,0-0.42,0.07-0.65,0.2l-18.27,10.55c-1,0.58-1.82,2.15-1.82,3.5v69.9
	c0,0.66,0.2,1.16,0.55,1.36c0.28,0.16,0.64,0.13,1.03-0.1l18.27-10.55c1-0.58,1.82-2.15,1.82-3.5v-69.9c0-0.66-0.2-1.16-0.55-1.36
	C142.21,98.24,142.08,98.21,141.94,98.21z"/>
<path class="st27" d="M176.67,150.68c-0.22,0-0.43-0.05-0.61-0.16c-0.5-0.29-0.79-0.93-0.79-1.77v-69.9c0-1.5,0.92-3.25,2.05-3.9
	l18.27-10.55c0.54-0.31,1.07-0.35,1.5-0.1c0.5,0.29,0.79,0.93,0.79,1.77v69.9c0,1.5-0.92,3.25-2.05,3.9l-18.27,10.55
	C177.25,150.59,176.95,150.68,176.67,150.68z M196.47,64.6c-0.2,0-0.42,0.07-0.65,0.2l-18.27,10.55c-1,0.58-1.82,2.15-1.82,3.5v69.9
	c0,0.66,0.2,1.16,0.55,1.36c0.28,0.16,0.64,0.13,1.03-0.1l18.27-10.55c1-0.58,1.82-2.15,1.82-3.5v-69.9c0-0.66-0.2-1.16-0.55-1.36
	C196.74,64.63,196.61,64.6,196.47,64.6z"/>
</svg>
